{
  "books": [
    {
      "id": "3",
      "bookName": "Eloquent Java",
      "authorName": "Marijn Haverbeke",
      "bookEdition": "5th",
      "bookPrice": "47",
      "customerName": "rajat sharma"
    },
    {
      "id": "4",
      "bookName": "Eloquent Node",
      "authorName": "Marijn Haverbeke",
      "bookEdition": "3rd",
      "bookPrice": "47",
      "customerName": ""
    },
    {
      "id": "5247f394-ef24-4948-8b86-6d5ab6095c97",
      "bookName": "Quantum computing",
      "authorName": "Macros",
      "bookEdition": "4th",
      "bookPrice": "899",
      "customerName": "siddhart"
    },
    {
      "id": "1aeec35e-2776-4082-8c7e-85f64b51330c",
      "bookName": "Quantum computing",
      "authorName": "Macros",
      "bookEdition": "4th",
      "bookPrice": "899",
      "customerName": "siddhart"
    },
    {
      "id": "aae9625a-44ba-4b70-b155-dc9bb5663b9f",
      "bookName": "Quantum Physics",
      "authorName": "HC verma",
      "bookEdition": "7th",
      "bookPrice": "899",
      "customerName": ""
    },
    {
      "id": "2d202759-0342-490c-9107-ffeb0830e6fb",
      "bookName": "phsycology of money",
      "authorName": "Macros",
      "bookEdition": "1ts",
      "bookPrice": "232",
      "customerName": ""
    },
    {
      "id": "08aa6b1f-4d6b-4365-9d09-4db40534461d",
      "bookName": "qweqweqw",
      "authorName": "HC verma",
      "bookEdition": "qweqweq",
      "bookPrice": "1234",
      "customerName": ""
    },
    {
      "id": "f9f9aa34-c8b7-4c93-ba53-d36e131cf4ee",
      "bookName": "qweqweqw",
      "authorName": "44",
      "bookEdition": "7th",
      "bookPrice": "899",
      "customerName": "siddhart"
    },
    {
      "id": "70acf70b-c870-4230-87bc-6a9d63c8f5c2",
      "bookName": "qweqweqw",
      "authorName": "HC verma",
      "bookEdition": "7th",
      "bookPrice": "232",
      "customerName": ""
    },
    {
      "id": "97ecca57-188b-444c-a657-8714dccc0d40",
      "bookName": "qweqweqw",
      "authorName": "HC verma",
      "bookEdition": "qweqweq",
      "bookPrice": "",
      "customerName": ""
    }
  ]
}